<?xml version="1.0" encoding="UTF-8" standalone="no"?>
<svg
   xmlns:dc="http://purl.org/dc/elements/1.1/"
   xmlns:cc="http://creativecommons.org/ns#"
   xmlns:rdf="http://www.w3.org/1999/02/22-rdf-syntax-ns#"
   xmlns:svg="http://www.w3.org/2000/svg"
   xmlns="http://www.w3.org/2000/svg"
   xmlns:sodipodi="http://sodipodi.sourceforge.net/DTD/sodipodi-0.dtd"
   xmlns:inkscape="http://www.inkscape.org/namespaces/inkscape"
   version="1.1"
   width="335.7mm"
   height="224.7mm"
   viewBox=" 0 0 1189.489167 796.181757"
   id="svg26"
   sodipodi:docname="Boitier_JPO.svg"
   inkscape:version="0.92.3 (2405546, 2018-03-11)">
  <metadata
     id="metadata32">
    <rdf:RDF>
      <cc:Work
         rdf:about="">
        <dc:format>image/svg+xml</dc:format>
        <dc:type
           rdf:resource="http://purl.org/dc/dcmitype/StillImage" />
      </cc:Work>
    </rdf:RDF>
  </metadata>
  <defs
     id="defs30" />
  <sodipodi:namedview
     pagecolor="#ffffff"
     bordercolor="#666666"
     borderopacity="1"
     objecttolerance="10"
     gridtolerance="10"
     guidetolerance="10"
     inkscape:pageopacity="0"
     inkscape:pageshadow="2"
     inkscape:window-width="1920"
     inkscape:window-height="1001"
     id="namedview28"
     showgrid="false"
     inkscape:zoom="0.7834955"
     inkscape:cx="652.90582"
     inkscape:cy="486.84843"
     inkscape:window-x="-9"
     inkscape:window-y="-9"
     inkscape:window-maximized="1"
     inkscape:current-layer="svg26" />
  <!-- Front-->
  <g
     transform="translate(22.5000185, 22.5000185) "
     id="g4"
     style="stroke:#ff0000;stroke-width:0.354331;stroke-miterlimit:4;stroke-dasharray:none">
    <polygon
       style="stroke:#ff0000;fill:none;stroke-width:0.354331;stroke-miterlimit:4;stroke-dasharray:none"
       points="0, 0 34.5472725, 0 34.5472725, 10.62993 69.094545, 10.62993 69.094545, 0 90.354405, 0 90.354405, 10.62993 111.61426499999999, 10.62993 111.61426499999999, 0 132.874125, 0 132.874125, 10.62993 154.133985, 10.62993 154.133985, 0 175.393845, 0 175.393845, 10.62993 196.653705, 10.62993 196.653705, 0 217.913565, 0 217.913565, 10.62993 239.173425, 10.62993 239.173425, 0 260.433285, 0 260.433285, 10.62993 281.693145, 10.62993 281.693145, 0 302.953005, 0 302.953005, 10.62993 324.21286499999997, 10.62993 324.21286499999997, 0 345.47272499999997, 0 345.47272499999997, 10.62993 366.732585, 10.62993 366.732585, 0 387.992445, 0 387.992445, 10.62993 409.252305, 10.62993 409.252305, 0 430.512165, 0 430.512165, 10.62993 465.0594375, 10.62993 465.0594375, 0 499.60671, 0 499.60671, 35.433099999999996 488.97678, 35.433099999999996 488.97678, 70.86619999999999 499.60671, 70.86619999999999 499.60671, 92.12606 488.97678, 92.12606 488.97678, 113.38592 499.60671, 113.38592 499.60671, 134.64578 488.97678, 134.64578 488.97678, 155.90564 499.60671, 155.90564 499.60671, 177.1655 488.97678, 177.1655 488.97678, 198.42535999999998 499.60671, 198.42535999999998 499.60671, 219.68522 488.97678, 219.68522 488.97678, 240.94508 499.60671, 240.94508 499.60671, 262.20493999999997 488.97678, 262.20493999999997 488.97678, 283.46479999999997 499.60671, 283.46479999999997 499.60671, 304.72466 488.97678, 304.72466 488.97678, 340.15776 499.60671, 340.15776 499.60671, 375.59086 465.0594375, 375.59086 465.0594375, 364.96093 430.512165, 364.96093 430.512165, 375.59086 409.252305, 375.59086 409.252305, 364.96093 387.992445, 364.96093 387.992445, 375.59086 366.732585, 375.59086 366.732585, 364.96093 345.47272499999997, 364.96093 345.47272499999997, 375.59086 324.21286499999997, 375.59086 324.21286499999997, 364.96093 302.953005, 364.96093 302.953005, 375.59086 281.693145, 375.59086 281.693145, 364.96093 260.433285, 364.96093 260.433285, 375.59086 239.173425, 375.59086 239.173425, 364.96093 217.913565, 364.96093 217.913565, 375.59086 196.653705, 375.59086 196.653705, 364.96093 175.393845, 364.96093 175.393845, 375.59086 154.133985, 375.59086 154.133985, 364.96093 132.874125, 364.96093 132.874125, 375.59086 111.61426499999999, 375.59086 111.61426499999999, 364.96093 90.354405, 364.96093 90.354405, 375.59086 69.094545, 375.59086 69.094545, 364.96093 34.5472725, 364.96093 34.5472725, 375.59086 0, 375.59086 0, 340.15776 10.62993, 340.15776 10.62993, 304.72466 0, 304.72466 0, 283.46479999999997 10.62993, 283.46479999999997 10.62993, 262.20493999999997 0, 262.20493999999997 0, 240.94508 10.62993, 240.94508 10.62993, 219.68522 0, 219.68522 0, 198.42535999999998 10.62993, 198.42535999999998 10.62993, 177.1655 0, 177.1655 0, 155.90564 10.62993, 155.90564 10.62993, 134.64578 0, 134.64578 0, 113.38592 10.62993, 113.38592 10.62993, 92.12606 0, 92.12606 0, 70.86619999999999 10.62993, 70.86619999999999 10.62993, 35.433099999999996 0, 35.433099999999996 "
       id="polygon2" />
  </g>
  <!-- Back-->
  <g
     transform="translate(522.1067284999999, 22.5000185) "
     id="g8"
     style="stroke:#ff0000;stroke-width:0.354331;stroke-miterlimit:4;stroke-dasharray:none">
    <polygon
       style="stroke:#ff0000;fill:none;stroke-width:0.354331;stroke-miterlimit:4;stroke-dasharray:none"
       points="0, 0 34.5472725, 0 34.5472725, 10.62993 69.094545, 10.62993 69.094545, 0 90.354405, 0 90.354405, 10.62993 111.61426499999999, 10.62993 111.61426499999999, 0 132.874125, 0 132.874125, 10.62993 154.133985, 10.62993 154.133985, 0 175.393845, 0 175.393845, 10.62993 196.653705, 10.62993 196.653705, 0 217.913565, 0 217.913565, 10.62993 239.173425, 10.62993 239.173425, 0 260.433285, 0 260.433285, 10.62993 281.693145, 10.62993 281.693145, 0 302.953005, 0 302.953005, 10.62993 324.21286499999997, 10.62993 324.21286499999997, 0 345.47272499999997, 0 345.47272499999997, 10.62993 366.732585, 10.62993 366.732585, 0 387.992445, 0 387.992445, 10.62993 409.252305, 10.62993 409.252305, 0 430.512165, 0 430.512165, 10.62993 465.0594375, 10.62993 465.0594375, 0 499.60671, 0 499.60671, 35.433099999999996 488.97678, 35.433099999999996 488.97678, 70.86619999999999 499.60671, 70.86619999999999 499.60671, 92.12606 488.97678, 92.12606 488.97678, 113.38592 499.60671, 113.38592 499.60671, 134.64578 488.97678, 134.64578 488.97678, 155.90564 499.60671, 155.90564 499.60671, 177.1655 488.97678, 177.1655 488.97678, 198.42535999999998 499.60671, 198.42535999999998 499.60671, 219.68522 488.97678, 219.68522 488.97678, 240.94508 499.60671, 240.94508 499.60671, 262.20493999999997 488.97678, 262.20493999999997 488.97678, 283.46479999999997 499.60671, 283.46479999999997 499.60671, 304.72466 488.97678, 304.72466 488.97678, 340.15776 499.60671, 340.15776 499.60671, 375.59086 465.0594375, 375.59086 465.0594375, 364.96093 430.512165, 364.96093 430.512165, 375.59086 409.252305, 375.59086 409.252305, 364.96093 387.992445, 364.96093 387.992445, 375.59086 366.732585, 375.59086 366.732585, 364.96093 345.47272499999997, 364.96093 345.47272499999997, 375.59086 324.21286499999997, 375.59086 324.21286499999997, 364.96093 302.953005, 364.96093 302.953005, 375.59086 281.693145, 375.59086 281.693145, 364.96093 260.433285, 364.96093 260.433285, 375.59086 239.173425, 375.59086 239.173425, 364.96093 217.913565, 364.96093 217.913565, 375.59086 196.653705, 375.59086 196.653705, 364.96093 175.393845, 364.96093 175.393845, 375.59086 154.133985, 375.59086 154.133985, 364.96093 132.874125, 364.96093 132.874125, 375.59086 111.61426499999999, 375.59086 111.61426499999999, 364.96093 90.354405, 364.96093 90.354405, 375.59086 69.094545, 375.59086 69.094545, 364.96093 34.5472725, 364.96093 34.5472725, 375.59086 0, 375.59086 0, 340.15776 10.62993, 340.15776 10.62993, 304.72466 0, 304.72466 0, 283.46479999999997 10.62993, 283.46479999999997 10.62993, 262.20493999999997 0, 262.20493999999997 0, 240.94508 10.62993, 240.94508 10.62993, 219.68522 0, 219.68522 0, 198.42535999999998 10.62993, 198.42535999999998 10.62993, 177.1655 0, 177.1655 0, 155.90564 10.62993, 155.90564 10.62993, 134.64578 0, 134.64578 0, 113.38592 10.62993, 113.38592 10.62993, 92.12606 0, 92.12606 0, 70.86619999999999 10.62993, 70.86619999999999 10.62993, 35.433099999999996 0, 35.433099999999996 "
       id="polygon6" />
  </g>
  <!-- Left-->
  <g
     transform="translate(1021.7134385, 22.5000185) "
     id="g12"
     style="stroke:#ff0000;stroke-width:0.354331;stroke-miterlimit:4;stroke-dasharray:none">
    <polygon
       style="stroke:#ff0000;fill:none;stroke-width:0.354331;stroke-miterlimit:4;stroke-dasharray:none"
       points="10.62993, 0 31.0039625, 0 31.0039625, 10.62993 62.007925, 10.62993 62.007925, 0 83.267785, 0 83.267785, 10.62993 114.2717475, 10.62993 114.2717475, 0 134.64578, 0 134.64578, 35.433099999999996 145.27571, 35.433099999999996 145.27571, 70.86619999999999 134.64578, 70.86619999999999 134.64578, 92.12606 145.27571, 92.12606 145.27571, 113.38592 134.64578, 113.38592 134.64578, 134.64578 145.27571, 134.64578 145.27571, 155.90564 134.64578, 155.90564 134.64578, 177.1655 145.27571, 177.1655 145.27571, 198.42535999999998 134.64578, 198.42535999999998 134.64578, 219.68522 145.27571, 219.68522 145.27571, 240.94508 134.64578, 240.94508 134.64578, 262.20493999999997 145.27571, 262.20493999999997 145.27571, 283.46479999999997 134.64578, 283.46479999999997 134.64578, 304.72466 145.27571, 304.72466 145.27571, 340.15776 134.64578, 340.15776 134.64578, 375.59086 114.2717475, 375.59086 114.2717475, 364.96093 83.267785, 364.96093 83.267785, 375.59086 62.007925, 375.59086 62.007925, 364.96093 31.0039625, 364.96093 31.0039625, 375.59086 10.62993, 375.59086 10.62993, 340.15776 0, 340.15776 0, 304.72466 10.62993, 304.72466 10.62993, 283.46479999999997 0, 283.46479999999997 0, 262.20493999999997 10.62993, 262.20493999999997 10.62993, 240.94508 0, 240.94508 0, 219.68522 10.62993, 219.68522 10.62993, 198.42535999999998 0, 198.42535999999998 0, 177.1655 10.62993, 177.1655 10.62993, 155.90564 0, 155.90564 0, 134.64578 10.62993, 134.64578 10.62993, 113.38592 0, 113.38592 0, 92.12606 10.62993, 92.12606 10.62993, 70.86619999999999 0, 70.86619999999999 0, 35.433099999999996 10.62993, 35.433099999999996 "
       id="polygon10" />
  </g>
  <!-- Right-->
  <g
     transform="translate(1021.7134385, 398.0908785) "
     id="g16"
     style="stroke:#ff0000;stroke-width:0.354331;stroke-miterlimit:4;stroke-dasharray:none">
    <polygon
       style="stroke:#ff0000;fill:none;stroke-width:0.354331;stroke-miterlimit:4;stroke-dasharray:none"
       points="10.62993, 0 31.0039625, 0 31.0039625, 10.62993 62.007925, 10.62993 62.007925, 0 83.267785, 0 83.267785, 10.62993 114.2717475, 10.62993 114.2717475, 0 134.64578, 0 134.64578, 35.433099999999996 145.27571, 35.433099999999996 145.27571, 70.86619999999999 134.64578, 70.86619999999999 134.64578, 92.12606 145.27571, 92.12606 145.27571, 113.38592 134.64578, 113.38592 134.64578, 134.64578 145.27571, 134.64578 145.27571, 155.90564 134.64578, 155.90564 134.64578, 177.1655 145.27571, 177.1655 145.27571, 198.42535999999998 134.64578, 198.42535999999998 134.64578, 219.68522 145.27571, 219.68522 145.27571, 240.94508 134.64578, 240.94508 134.64578, 262.20493999999997 145.27571, 262.20493999999997 145.27571, 283.46479999999997 134.64578, 283.46479999999997 134.64578, 304.72466 145.27571, 304.72466 145.27571, 340.15776 134.64578, 340.15776 134.64578, 375.59086 114.2717475, 375.59086 114.2717475, 364.96093 83.267785, 364.96093 83.267785, 375.59086 62.007925, 375.59086 62.007925, 364.96093 31.0039625, 364.96093 31.0039625, 375.59086 10.62993, 375.59086 10.62993, 340.15776 0, 340.15776 0, 304.72466 10.62993, 304.72466 10.62993, 283.46479999999997 0, 283.46479999999997 0, 262.20493999999997 10.62993, 262.20493999999997 10.62993, 240.94508 0, 240.94508 0, 219.68522 10.62993, 219.68522 10.62993, 198.42535999999998 0, 198.42535999999998 0, 177.1655 10.62993, 177.1655 10.62993, 155.90564 0, 155.90564 0, 134.64578 10.62993, 134.64578 10.62993, 113.38592 0, 113.38592 0, 92.12606 10.62993, 92.12606 10.62993, 70.86619999999999 0, 70.86619999999999 0, 35.433099999999996 10.62993, 35.433099999999996 "
       id="polygon14" />
  </g>
  <!-- Top-->
  <g
     transform="translate(22.5000185, 398.0908785) "
     id="g20"
     style="stroke:#ff0000;stroke-width:0.354331;stroke-miterlimit:4;stroke-dasharray:none">
    <polygon
       style="stroke:#ff0000;fill:none;stroke-width:0.354331;stroke-miterlimit:4;stroke-dasharray:none"
       points="10.62993, 10.62993 34.5472725, 10.62993 34.5472725, 0 69.094545, 0 69.094545, 10.62993 90.354405, 10.62993 90.354405, 0 111.61426499999999, 0 111.61426499999999, 10.62993 132.874125, 10.62993 132.874125, 0 154.133985, 0 154.133985, 10.62993 175.393845, 10.62993 175.393845, 0 196.653705, 0 196.653705, 10.62993 217.913565, 10.62993 217.913565, 0 239.173425, 0 239.173425, 10.62993 260.433285, 10.62993 260.433285, 0 281.693145, 0 281.693145, 10.62993 302.953005, 10.62993 302.953005, 0 324.21286499999997, 0 324.21286499999997, 10.62993 345.47272499999997, 10.62993 345.47272499999997, 0 366.732585, 0 366.732585, 10.62993 387.992445, 10.62993 387.992445, 0 409.252305, 0 409.252305, 10.62993 430.512165, 10.62993 430.512165, 0 465.0594375, 0 465.0594375, 10.62993 488.97678, 10.62993 488.97678, 31.0039625 499.60671, 31.0039625 499.60671, 62.007925 488.97678, 62.007925 488.97678, 83.267785 499.60671, 83.267785 499.60671, 114.2717475 488.97678, 114.2717475 488.97678, 134.64578 465.0594375, 134.64578 465.0594375, 145.27571 430.512165, 145.27571 430.512165, 134.64578 409.252305, 134.64578 409.252305, 145.27571 387.992445, 145.27571 387.992445, 134.64578 366.732585, 134.64578 366.732585, 145.27571 345.47272499999997, 145.27571 345.47272499999997, 134.64578 324.21286499999997, 134.64578 324.21286499999997, 145.27571 302.953005, 145.27571 302.953005, 134.64578 281.693145, 134.64578 281.693145, 145.27571 260.433285, 145.27571 260.433285, 134.64578 239.173425, 134.64578 239.173425, 145.27571 217.913565, 145.27571 217.913565, 134.64578 196.653705, 134.64578 196.653705, 145.27571 175.393845, 145.27571 175.393845, 134.64578 154.133985, 134.64578 154.133985, 145.27571 132.874125, 145.27571 132.874125, 134.64578 111.61426499999999, 134.64578 111.61426499999999, 145.27571 90.354405, 145.27571 90.354405, 134.64578 69.094545, 134.64578 69.094545, 145.27571 34.5472725, 145.27571 34.5472725, 134.64578 10.62993, 134.64578 10.62993, 114.2717475 0, 114.2717475 0, 83.267785 10.62993, 83.267785 10.62993, 62.007925 0, 62.007925 0, 31.0039625 10.62993, 31.0039625 "
       id="polygon18" />
  </g>
  <!-- Bottom-->
  <g
     transform="translate(522.1067284999999, 398.0908785) "
     id="g24"
     style="stroke:#ff0000;stroke-width:0.354331;stroke-miterlimit:4;stroke-dasharray:none">
    <polygon
       style="stroke:#ff0000;fill:none;stroke-width:0.354331;stroke-miterlimit:4;stroke-dasharray:none"
       points="10.62993, 10.62993 34.5472725, 10.62993 34.5472725, 0 69.094545, 0 69.094545, 10.62993 90.354405, 10.62993 90.354405, 0 111.61426499999999, 0 111.61426499999999, 10.62993 132.874125, 10.62993 132.874125, 0 154.133985, 0 154.133985, 10.62993 175.393845, 10.62993 175.393845, 0 196.653705, 0 196.653705, 10.62993 217.913565, 10.62993 217.913565, 0 239.173425, 0 239.173425, 10.62993 260.433285, 10.62993 260.433285, 0 281.693145, 0 281.693145, 10.62993 302.953005, 10.62993 302.953005, 0 324.21286499999997, 0 324.21286499999997, 10.62993 345.47272499999997, 10.62993 345.47272499999997, 0 366.732585, 0 366.732585, 10.62993 387.992445, 10.62993 387.992445, 0 409.252305, 0 409.252305, 10.62993 430.512165, 10.62993 430.512165, 0 465.0594375, 0 465.0594375, 10.62993 488.97678, 10.62993 488.97678, 31.0039625 499.60671, 31.0039625 499.60671, 62.007925 488.97678, 62.007925 488.97678, 83.267785 499.60671, 83.267785 499.60671, 114.2717475 488.97678, 114.2717475 488.97678, 134.64578 465.0594375, 134.64578 465.0594375, 145.27571 430.512165, 145.27571 430.512165, 134.64578 409.252305, 134.64578 409.252305, 145.27571 387.992445, 145.27571 387.992445, 134.64578 366.732585, 134.64578 366.732585, 145.27571 345.47272499999997, 145.27571 345.47272499999997, 134.64578 324.21286499999997, 134.64578 324.21286499999997, 145.27571 302.953005, 145.27571 302.953005, 134.64578 281.693145, 134.64578 281.693145, 145.27571 260.433285, 145.27571 260.433285, 134.64578 239.173425, 134.64578 239.173425, 145.27571 217.913565, 145.27571 217.913565, 134.64578 196.653705, 134.64578 196.653705, 145.27571 175.393845, 145.27571 175.393845, 134.64578 154.133985, 134.64578 154.133985, 145.27571 132.874125, 145.27571 132.874125, 134.64578 111.61426499999999, 134.64578 111.61426499999999, 145.27571 90.354405, 145.27571 90.354405, 134.64578 69.094545, 134.64578 69.094545, 145.27571 34.5472725, 145.27571 34.5472725, 134.64578 10.62993, 134.64578 10.62993, 114.2717475 0, 114.2717475 0, 83.267785 10.62993, 83.267785 10.62993, 62.007925 0, 62.007925 0, 31.0039625 10.62993, 31.0039625 "
       id="polygon22" />
  </g>
  <path
     id="rect4532"
     d="m 136.58457,255.9451 h 256.45622 v -10.90574 h 19.12563 V 181.26003 H 393.04079 V 167.36235 H 301.44903 V 149.64687 H 136.58457 v 17.71548 z"
     style="display:inline;fill:none;stroke:#ff0000;stroke-width:0.354331;stroke-miterlimit:4;stroke-dasharray:none;stroke-opacity:1"
     inkscape:connector-curvature="0" />
  <ellipse
     cy="472.50311"
     cx="409.14893"
     id="path4565"
     style="display:inline;fill:none;stroke:#ff0000;stroke-width:0.354331;stroke-miterlimit:4;stroke-dasharray:none;stroke-opacity:1"
     rx="38.883831"
     ry="38.883827" />
  <rect
     style="fill:none;stroke:#ff0000;stroke-width:0.354331;stroke-miterlimit:4;stroke-dasharray:none;stroke-opacity:1"
     id="rect3753"
     width="31.801937"
     height="31.801939"
     x="1079.4797"
     y="106.9828" />
  <path
     style="fill:#000000;stroke-width:0.47594699"
     d="m 427.80757,156.64751 c -20.85264,-2.60471 -37.52273,-17.83917 -42.42971,-38.77569 -1.37868,-5.8824 -1.16822,-16.56762 0.44631,-22.658824 3.79696,-14.32496 13.12835,-25.78636 26.28833,-32.28898 2.62385,-1.29656 6.90737,-2.92423 9.51894,-3.6171 4.11168,-1.09084 5.70543,-1.26147 11.88749,-1.27239 4.91197,-0.009 8.18369,0.22704 10.48719,0.75573 21.80325,5.00412 36.79823,21.72363 39.28239,43.800094 1.02211,9.08345 -0.59496,17.71857 -5.00954,26.75084 -9.24124,18.90765 -29.58665,29.91503 -50.4714,27.30632 z m 14.92447,-11.1547 c 4.40104,-1.06246 12.10518,-4.91095 15.67724,-7.83125 5.88405,-4.81054 10.09418,-11.01801 12.74483,-18.7912 1.87114,-5.48727 2.18655,-14.76145 0.71219,-20.941704 -2.71729,-11.39033 -10.252,-20.90277 -20.73733,-26.18047 -6.01855,-3.02935 -10.61235,-4.12852 -17.37207,-4.1566 -11.28546,-0.0467 -20.23414,3.60984 -28.12927,11.4943 -8.31396,8.30275 -12.43484,18.97644 -11.68488,30.265554 0.63881,9.61609 4.05309,17.52639 10.54133,24.42268 6.6556,7.07412 14.00446,10.9948 23.32349,12.44325 3.74755,0.58251 10.96109,0.23231 14.92447,-0.72456 z m -21.57479,-4.46998 c -0.78716,-1.27366 2.16436,-5.27283 4.38957,-5.94764 1.32734,-0.40253 1.39831,-1.4918 0.11899,-1.82636 -0.52355,-0.13692 -0.9519,-0.50321 -0.9519,-0.81402 0,-0.31074 0.42835,-0.67708 0.9519,-0.81395 0.52354,-0.13692 0.95189,-0.52026 0.95189,-0.85183 0,-0.33162 -0.42835,-0.71491 -0.95189,-0.85183 -0.52355,-0.13692 -0.9519,-0.48316 -0.9519,-0.76944 0,-0.28628 0.42835,-0.52051 0.9519,-0.52051 0.63459,0 0.95189,-0.3173 0.95189,-0.9519 0,-0.6346 -0.3173,-0.95189 -0.95189,-0.95189 -0.99988,0 -1.21633,-0.74959 -0.52944,-1.83353 0.24615,-0.38847 0.14559,-1.16938 -0.25367,-1.96968 -0.48248,-0.96717 -0.53361,-1.66248 -0.18896,-2.569 0.41059,-1.07993 0.34927,-1.24294 -0.46756,-1.24294 -0.52692,0 -0.94011,-0.32034 -0.94011,-0.72882 0,-0.40091 -0.32126,-0.85213 -0.71392,-1.00281 -0.57377,-0.22018 -0.71392,-1.28559 -0.71392,-5.42686 v -5.15286 l -1.30886,-0.15063 c -1.09061,-0.1255 -1.33372,-0.40853 -1.45799,-1.69742 -0.14569,-1.51105 -0.20234,-1.54684 -2.4478,-1.54684 -1.65702,0 -2.3793,-0.21013 -2.58756,-0.75283 -0.56427,-1.47048 -0.27578,-3.054892 0.66301,-3.641162 1.31245,-0.81965 1.26199,-3.021742 -0.0858,-3.743002 -1.01674,-0.54417 -1.01914,-0.56905 -0.11899,-1.23411 0.8641,-0.63845 0.86919,-0.70683 0.0858,-1.15089 -1.00769,-0.57119 -1.09375,-1.37667 -0.14707,-1.37667 1.20558,0 1.34897,-0.98906 0.30457,-2.10082 -0.9425,-1.00322 -1.94229,-3.53389 -1.94229,-4.91628 0,-1.06384 1.82622,-0.6745 1.98967,0.42421 0.34686,2.3314 3.28895,2.3314 3.6358,0 0.19857,-1.33463 1.98968,-1.41814 1.98968,-0.0928 0,1.28107 -0.94098,3.37407 -2.11361,4.70124 -0.92529,1.04729 -0.93351,1.14329 -0.14714,1.71828 1.02076,0.74644 1.08732,1.69401 0.11898,1.69401 -0.39265,0 -0.71391,0.21414 -0.71391,0.47596 0,0.26175 0.32126,0.47594 0.71391,0.47594 0.39266,0 0.71393,0.32126 0.71393,0.7139 0,0.39268 -0.32127,0.71394 -0.71393,0.71394 -0.49861,0 -0.71391,0.5024 -0.71391,1.66579 0,1.163442 0.2153,1.665842 0.71391,1.665842 0.44422,0 0.71393,-0.4495 0.71393,-1.189902 0,-0.99946 0.22397,-1.18984 1.39975,-1.18984 0.76986,0 1.53212,-0.21418 1.6939,-0.47594 0.16179,-0.26177 1.68855,-0.47595 3.39283,-0.47595 2.94119,0 3.09094,-0.0544 2.94658,-1.07089 -0.10891,-0.76674 -0.5238,-1.11364 -1.46095,-1.22147 l -1.30885,-0.15063 v -6.63163 -6.63162 h 1.66581 c 1.76892,0 2.21999,-0.63526 0.8329,-1.17299 -0.7775,-0.30141 -0.77196,-0.3677 0.0834,-0.99723 0.79793,-0.58728 0.83759,-0.82152 0.30689,-1.81312 -0.90015,-1.68192 -0.25224,-3.24739 1.26839,-3.06458 1.77,0.21277 2.38793,1.44271 1.532,3.04926 -0.53802,1.00981 -0.5596,1.34316 -0.097,1.49846 0.70552,0.23688 0.80631,1.54831 0.11897,1.54831 -0.26176,0 -0.47594,0.21414 -0.47594,0.47594 0,0.27994 1.66582,0.47595 4.04555,0.47595 3.82656,0 5.06858,-0.45351 3.21265,-1.17299 -0.77751,-0.30141 -0.77196,-0.3677 0.0834,-0.99723 0.79628,-0.58606 0.83688,-0.82278 0.31001,-1.80727 -0.8799,-1.64412 -0.48729,-2.89797 0.96026,-3.06682 1.81441,-0.2116 2.60429,0.96143 1.85898,2.76074 -0.48333,1.16689 -0.47213,1.5737 0.061,2.21962 0.50904,0.61667 0.5218,0.83497 0.0579,0.99113 -1.11806,0.37629 -0.59689,1.0123 0.9519,1.16162 l 1.54682,0.14915 v 6.4253 6.42526 l -1.30885,0.15062 c -1.02804,0.1183 -1.30885,0.39909 -1.30885,1.30885 0,1.11673 0.11943,1.15826 3.33162,1.15826 1.83239,0 3.33163,0.20059 3.33163,0.44579 0,0.24516 0.69607,0.5129 1.54683,0.59494 1.36012,0.13114 1.56483,0.33583 1.69597,1.69595 0.14618,1.516122 0.19581,1.546842 2.49873,1.546842 h 2.34957 v 2.141732 c 0,1.58654 -0.18508,2.14178 -0.71392,2.14178 -0.49433,0 -0.71391,0.49677 -0.71391,1.61492 0,0.99638 0.27342,1.71982 0.71391,1.88887 0.99033,0.37999 0.89818,1.7293 -0.11898,1.74224 -0.67596,0.009 -0.60869,0.18739 0.35695,0.94885 l 1.18987,0.93829 -1.07087,0.29653 c -1.30295,0.36076 -1.35438,0.99957 -0.18492,2.29658 0.8877,0.98448 1.96972,3.65486 1.96972,4.86115 0,0.35359 -0.42836,0.64287 -0.95191,0.64287 -0.61389,0 -0.95189,-0.31729 -0.95189,-0.89361 0,-2.28134 -3.52728,-2.53062 -4.08989,-0.28897 -0.35251,1.40449 -1.62148,1.59263 -1.62148,0.24033 0,-1.43992 1.41718,-4.66316 2.17875,-4.95537 0.90004,-0.34543 0.8705,-1.71752 -0.0369,-1.71752 -0.96718,0 -0.90189,-0.94226 0.11899,-1.71717 0.79324,-0.60215 0.79324,-0.63302 0,-0.64744 -1.01723,-0.0183 -1.10907,-1.36686 -0.11899,-1.74676 0.9565,-0.36704 0.98481,-3.50379 0.0316,-3.50379 -0.39053,0 -0.74671,0.55972 -0.83291,1.30885 -0.12548,1.09064 -0.40853,1.33376 -1.69743,1.458 l -1.54683,0.14915 v 5.20526 c 10e-6,2.86289 -0.18918,5.20525 -0.42043,5.20525 -0.23123,0 -0.53245,0.42839 -0.66936,0.9519 -0.14789,0.5656 -0.64919,0.95189 -1.23516,0.95189 -0.87445,0 -0.92591,0.13251 -0.45388,1.16847 0.39959,0.87701 0.3871,1.51907 -0.05,2.57447 -0.4266,1.02993 -0.44442,1.66397 -0.0666,2.3699 0.70949,1.32569 0.65823,1.50231 -0.43609,1.50231 -0.63459,0 -0.9519,0.31729 -0.9519,0.95189 0,0.6346 0.31731,0.9519 0.9519,0.9519 0.52355,0 0.9519,0.23423 0.9519,0.52051 0,0.28628 -0.42835,0.63252 -0.9519,0.76944 -0.52354,0.13692 -0.9519,0.52021 -0.9519,0.85183 0,0.33157 0.42836,0.71491 0.9519,0.85183 0.52355,0.13687 0.9519,0.46869 0.9519,0.73735 0,0.26861 -0.42835,0.62439 -0.9519,0.79055 -1.43354,0.45498 -1.14753,1.39622 0.69063,2.27277 1.86043,0.88717 2.8762,2.25617 3.34601,4.50949 l 0.32251,1.54679 h -6.67297 c -3.88338,0 -6.79455,-0.19667 -6.96375,-0.47046 -0.15992,-0.25872 0.12353,-1.40704 0.62991,-2.55179 0.69794,-1.57781 1.39181,-2.29876 2.8681,-2.98016 2.12486,-0.98068 2.50793,-1.85445 1.02009,-2.32664 -0.52354,-0.16616 -0.95188,-0.52194 -0.95188,-0.79055 0,-0.26866 0.42834,-0.60048 0.95188,-0.73735 0.52355,-0.13692 0.95189,-0.52026 0.95189,-0.85183 0,-0.33162 -0.42834,-0.71491 -0.95189,-0.85183 -0.52354,-0.13692 -0.95188,-0.45818 -0.95188,-0.71394 0,-0.25572 0.42834,-0.57699 0.95188,-0.7139 1.41367,-0.36969 1.21351,-1.7659 -0.25318,-1.7659 -1.15164,0 -1.17586,-0.0558 -0.54617,-1.25752 0.55875,-1.06642 0.55979,-1.45617 0.007,-2.56463 -0.474,-0.95016 -0.52303,-1.64654 -0.17952,-2.55006 0.40439,-1.06363 0.34494,-1.24294 -0.41204,-1.24294 -0.48653,0 -0.99662,-0.42832 -1.13354,-0.95189 -0.20334,-0.77761 -0.64919,-0.9519 -2.43524,-0.9519 -1.68318,0 -2.18631,0.1746 -2.18631,0.75853 0,0.41715 -0.4058,0.86456 -0.90177,0.99427 -0.66956,0.1751 -0.90993,0.68445 -0.9335,1.97822 -0.0175,0.95834 -0.0751,2.27784 -0.12801,2.93224 -0.0529,0.65444 0.0688,1.56465 0.27049,2.02278 0.28437,0.64577 0.14146,0.8329 -0.63603,0.8329 -0.68551,0 -1.00282,0.3012 -1.00282,0.95189 0,0.6346 0.31731,0.9519 0.95189,0.9519 0.52355,0 0.9519,0.23423 0.9519,0.52051 0,0.28628 -0.42835,0.63252 -0.9519,0.76944 -0.52353,0.13692 -0.95189,0.52021 -0.95189,0.85183 0,0.33157 0.42836,0.71491 0.95189,0.85183 0.52355,0.13687 0.9519,0.50321 0.9519,0.81395 0,0.31081 -0.42835,0.6771 -0.9519,0.81402 -1.438,0.37603 -1.14518,1.29727 0.69063,2.1727 1.86044,0.88717 2.87621,2.25617 3.34602,4.50949 l 0.32252,1.54679 h -6.673 c -3.73041,0 -6.79699,-0.20064 -6.95419,-0.45498 z m 11.31055,-32.38849 c 0.15426,-0.58992 0.79718,-1.06455 1.68168,-1.24143 0.78756,-0.15752 2.02528,-0.90569 2.75049,-1.66264 1.73305,-1.80895 2.43358,-1.76447 1.12628,0.0714 -0.70178,0.98555 -0.93716,1.82129 -0.73727,2.61768 0.2768,1.10288 0.48415,1.16995 3.6162,1.16995 h 3.32255 v -5.24548 -5.245512 l -9.39995,0.12905 -9.39995,0.12905 -0.13509,5.116472 -0.13508,5.11642 h 3.53019 c 3.1338,0 3.55824,-0.10723 3.77995,-0.95505 z m 7.47642,-18.336924 v -1.20599 l -5.11644,0.1351 c -4.89632,0.1293 -5.12297,0.18119 -5.26852,1.20598 -0.14986,1.05521 -0.075,1.0709 5.11644,1.0709 h 5.26852 z m 0.20397,-3.8255 c 1.67242,-1.67239 -0.11573,-4.0643 -2.22674,-2.97858 -1.55554,0.80005 -0.67432,3.63004 1.15586,3.71208 0.17764,0.008 0.65953,-0.32213 1.07088,-0.7335 z m -7.43364,-1.24284 c 0.24575,-2.12722 -2.69384,-2.97772 -3.45313,-0.999 -0.58502,1.52449 0.19725,2.57742 1.79947,2.42197 1.23498,-0.11981 1.53271,-0.37599 1.65366,-1.42297 z m 39.02928,-28.58883 c -0.12993,-1.34758 -0.30584,-1.52867 -1.36586,-1.4058 -0.69912,0.081 -1.76209,-0.28806 -2.49873,-0.86747 -1.1275,-0.88692 -1.28198,-1.3395 -1.28198,-3.7558 0,-2.04995 0.21935,-2.9459 0.86413,-3.52942 1.17984,-1.06774 3.38812,-1.44114 4.96621,-0.83974 l 1.30885,0.49879 v 5.72314 c 0,5.34345 -0.0612,5.72314 -0.92173,5.72314 -0.69203,0 -0.95891,-0.38547 -1.07089,-1.54684 z m 0.0888,-6.32301 c 0,-2.53138 -0.0356,-2.60099 -1.33266,-2.60099 -1.79918,0 -2.47492,0.79833 -2.47492,2.92392 0,2.1396 1.47703,3.52531 2.92927,2.74805 0.68929,-0.36888 0.87831,-1.02977 0.87831,-3.07098 z m -94.8622,4.70677 c -0.17996,-0.17992 -0.32721,-2.99525 -0.32721,-6.25616 v -5.92894 l 2.69677,0.22363 c 3.21307,0.26648 4.44243,1.41424 4.44243,4.14751 0,2.19083 -1.70795,3.99648 -3.78021,3.99648 -1.30225,0 -1.41895,0.14347 -1.5507,1.90648 -0.13534,1.81099 -0.76661,2.62551 -1.48108,1.911 z m 4.93211,-6.65671 c 0.59246,-1.55831 0.20403,-2.87527 -1.04523,-3.54388 -1.59107,-0.85153 -2.3103,-0.20251 -2.3103,2.08467 0,2.38658 0.21078,2.71195 1.75691,2.71195 0.77424,0 1.27005,-0.38853 1.59862,-1.25274 z m 5.03773,5.9777 c -1.06966,-0.84143 -1.25405,-1.35307 -1.25405,-3.47988 0,-3.11449 1.14637,-4.5767 3.58814,-4.5767 2.49297,0 3.55106,1.33696 3.55106,4.48694 0,2.22379 -0.17449,2.72045 -1.25405,3.56964 -0.68973,0.5425 -1.73173,0.98641 -2.31555,0.98641 -0.58382,0 -1.62582,-0.44391 -2.31555,-0.98641 z m 3.7094,-1.18934 c 1.59789,-1.59792 0.61351,-5.43941 -1.39385,-5.43941 -2.03541,0 -2.9425,3.56177 -1.35408,5.31695 0.96593,1.06735 1.76735,1.10304 2.74793,0.12246 z m 5.33579,1.8455 c -0.16739,-0.16738 -0.30436,-2.94584 -0.30436,-6.17436 0,-4.90051 0.11792,-5.87002 0.71392,-5.87002 0.59634,0 0.71392,0.9752 0.71392,5.92124 0,5.40047 -0.28621,6.96041 -1.12348,6.12314 z m 5.49675,-0.64017 c -1.43926,-1.34088 -1.4944,-5.71604 -0.0897,-7.12068 2.01896,-2.01898 6.18731,-0.56682 6.18731,2.15549 0,0.84899 -0.45147,1.13243 -2.63989,1.65742 -3.02037,0.72455 -3.37858,1.04743 -2.32793,2.09808 0.93373,0.93371 1.58129,0.9495 2.56148,0.0625 0.52684,-0.47682 0.9794,-0.54734 1.46532,-0.2283 0.59281,0.38917 0.52687,0.60925 -0.42056,1.40377 -1.44678,1.2132 -3.41606,1.20147 -4.73599,-0.0284 z m 3.1491,-4.98153 c 0.6034,-0.17389 1.01497,-0.56566 0.91461,-0.87067 -0.25836,-0.78522 -2.17159,-0.97388 -2.98978,-0.29485 -0.97965,0.81303 -0.87914,1.99958 0.14518,1.71391 0.4581,-0.12773 1.32659,-0.37452 1.92999,-0.54839 z m 10.88092,5.63465 c -0.17452,-0.17449 -0.3173,-2.95879 -0.3173,-6.18731 v -5.87002 h 1.88139 c 4.00567,0 6.09079,2.43051 4.6597,5.43154 -0.47227,0.99038 -0.58752,1.79951 -0.31713,2.22662 0.2336,0.36903 0.42801,1.59902 0.43201,2.73338 0.009,2.57057 -1.04427,2.49666 -1.46683,-0.10296 -0.35309,-2.17225 -0.9347,-2.80171 -2.39755,-2.59473 -0.97827,0.13844 -1.14478,0.45548 -1.27084,2.42005 -0.13681,2.13198 -0.47261,2.67428 -1.20345,1.94343 z m 3.99752,-6.36271 c 1.39088,-0.74436 1.23965,-3.18994 -0.23892,-3.86358 -1.80611,-0.82294 -2.64806,-0.22444 -2.64806,1.88226 0,2.54443 0.80391,3.09617 2.88698,1.98132 z m 7.00764,6.03114 c -2.05172,-1.55876 -2.19231,-6.30661 -0.2275,-7.68282 1.52728,-1.06978 3.79911,-0.8926 5.00428,0.39026 1.51912,1.61699 1.44873,5.19109 -0.13339,6.77322 -1.28614,1.28614 -3.33283,1.51506 -4.64339,0.51934 z m 3.64289,-1.83677 c 1.45461,-2.07675 0.51571,-5.12952 -1.57765,-5.12952 -1.29577,0 -1.96497,0.99338 -1.96497,2.91686 0,2.93981 2.11016,4.25779 3.54262,2.21266 z m 5.34172,2.16834 c -0.17451,-0.17449 -0.31729,-2.95879 -0.31729,-6.18731 0,-4.90051 0.11791,-5.87002 0.71392,-5.87002 0.49861,0 0.71391,0.5024 0.71391,1.66584 0,1.61493 0.0558,1.6658 1.83002,1.6658 2.19684,0 3.3291,1.06474 3.72473,3.50271 0.3216,1.98187 -0.53043,4.41314 -1.78115,5.08251 -0.97314,0.52082 -4.40509,0.61952 -4.88414,0.14047 z m 4.14557,-1.72275 c 0.6267,-0.45823 0.79917,-1.13421 0.6859,-2.6882 -0.28519,-3.91271 -3.34513,-3.95256 -3.63196,-0.0472 -0.082,1.11582 -0.0351,2.3255 0.10405,2.6882 0.31758,0.82767 1.74242,0.85132 2.84201,0.0472 z m 6.61609,1.10917 c -1.9534,-1.81987 -1.9469,-6.02591 0.0114,-7.39761 1.53145,-1.07267 3.80237,-0.89722 5.00886,0.38706 1.51912,1.61699 1.44874,5.19109 -0.13338,6.77322 -1.42163,1.42159 -3.50701,1.52287 -4.8869,0.23733 z m 3.95577,-1.68473 c 1.12729,-1.72046 0.55521,-4.41521 -1.02133,-4.81089 -1.65623,-0.41569 -2.59066,0.55504 -2.59066,2.69129 0,3.06277 2.1625,4.33181 3.61199,2.1196 z m 6.50188,2.13383 c -0.96736,-0.39696 -1.07088,-0.76294 -1.07088,-3.78641 0,-2.65779 -0.147,-3.34697 -0.71392,-3.34697 -0.39266,0 -0.71392,-0.32125 -0.71392,-0.71388 0,-0.3927 0.32126,-0.71395 0.71392,-0.71395 0.49861,0 0.71392,-0.5024 0.71392,-1.6658 0,-2.20879 1.3053,-2.31118 1.51667,-0.11899 0.12427,1.28889 0.36739,1.57191 1.45799,1.69741 0.71987,0.0829 1.30887,0.44342 1.30887,0.80133 0,0.35785 -0.589,0.71845 -1.30887,0.80126 -1.25093,0.14393 -1.30885,0.26642 -1.30885,2.76831 0,2.51544 0.0523,2.62372 1.33715,2.77105 0.95193,0.10915 1.2933,0.3834 1.185,0.9519 -0.17728,0.93057 -1.5889,1.18176 -3.11708,0.55474 z m 5.43373,0.16448 c -0.17452,-0.17449 -0.31731,-2.20916 -0.31731,-4.52147 0,-3.41982 0.13321,-4.20422 0.71392,-4.20422 0.58451,0 0.71393,0.81969 0.71393,4.52151 0,4.14438 -0.24455,5.07017 -1.11054,4.20418 z m 15.6053,-0.85091 c -1.02156,-1.02156 -1.16825,-1.59371 -1.16825,-4.55641 0,-2.9698 0.10285,-3.36863 0.83291,-3.22988 0.67005,0.12727 0.87944,0.80883 1.07089,3.4855 0.21661,3.02864 0.33643,3.34122 1.33505,3.48277 1.8784,0.26627 2.47252,-0.69999 2.47252,-4.02137 0,-2.77211 0.0872,-3.03539 1.00561,-3.03539 0.94728,0 0.9945,0.19652 0.8141,3.38899 -0.16903,2.99133 -0.346,3.52191 -1.50808,4.52153 -1.68739,1.4514 -3.38005,1.43896 -4.85475,-0.0355 z m 10.47083,0 c -1.63116,-1.63118 -1.66727,-5.33625 -0.0667,-6.83993 2.17559,-2.04386 6.03765,-0.74873 6.03765,2.02466 0,1.01261 -0.32423,1.22832 -2.61771,1.74158 -2.65243,0.59357 -3.19833,1.26377 -1.90421,2.33776 0.5692,0.47239 1.00539,0.47123 2.15702,-0.006 1.85836,-0.76975 2.45378,-0.17687 1.00332,0.99901 -1.52733,1.23822 -3.20767,1.14441 -4.60939,-0.25729 z m 2.58994,-4.59728 c 1.76242,-0.61434 1.7231,-1.54541 -0.0743,-1.7592 -1.21928,-0.14504 -2.61333,1.29742 -1.92201,1.98873 0.37533,0.37532 0.20518,0.39487 1.99629,-0.22953 z m -100.12727,-5.17002 c -1.05838,-1.16953 -1.57464,-1.20243 -2.71231,-0.17281 -1.56591,1.41713 -1.57499,0.17342 -0.0102,-1.39139 l 1.52243,-1.52242 1.53035,1.53033 c 1.05854,1.05856 1.37789,1.68285 1.03583,2.02487 -0.34205,0.34208 -0.76323,0.1976 -1.36614,-0.46858 z m 71.14389,-0.48722 c 0,-0.52884 0.31731,-0.9519 0.71392,-0.9519 0.39663,0 0.71393,0.42306 0.71393,0.9519 0,0.52885 -0.3173,0.9519 -0.71393,0.9519 -0.39661,0 -0.71392,-0.42305 -0.71392,-0.9519 z"
     id="path5573"
     inkscape:connector-curvature="0" />
  <rect
     style="fill:none;stroke:#ff0000;stroke-width:0.354331;stroke-miterlimit:4;stroke-dasharray:none;stroke-opacity:1"
     id="rect3753-5"
     width="43.113911"
     height="27.572758"
     x="1073.1929"
     y="435.93256" />
  <rect
     style="fill:none;stroke:#ff0000;stroke-width:0.354331;stroke-miterlimit:4;stroke-dasharray:none;stroke-opacity:1"
     id="rect3753-2"
     width="21.157429"
     height="53.207115"
     x="1083.7726"
     y="398.14209" />
  <rect
     style="fill:none;stroke:#ff0000;stroke-width:0.354331;stroke-miterlimit:4;stroke-dasharray:none;stroke-opacity:1"
     id="rect3753-2-0-5"
     width="63.538509"
     height="35.039894"
     x="825.30078"
     y="398.09088" />
  <rect
     style="fill:none;stroke:#ff0000;stroke-width:0.354331;stroke-miterlimit:4;stroke-dasharray:none;stroke-opacity:1"
     id="rect3753-2-0"
     width="148.52187"
     height="94.681168"
     x="155.67128"
     y="398.09088" />
  <rect
     style="fill:none;stroke:#ff0000;stroke-width:0.354331;stroke-miterlimit:4;stroke-dasharray:none;stroke-opacity:1"
     id="rect3753-2-0-5-1"
     width="63.449974"
     height="52.667915"
     x="825.34503"
     y="345.37872" />
  <circle
     cy="144.6299"
     cx="770.02417"
     id="path4565-4"
     style="display:inline;fill:none;stroke:#ff0000;stroke-width:0.354331;stroke-miterlimit:4;stroke-dasharray:none;stroke-opacity:1"
     r="1.7636194" />
  <circle
     cy="144.64751"
     cx="942.08948"
     id="path4565-4-8"
     style="display:inline;fill:none;stroke:#ff0000;stroke-width:0.35433099;stroke-miterlimit:4;stroke-dasharray:none;stroke-opacity:1"
     r="1.7636194" />
  <circle
     cy="350.38144"
     cx="942.0899"
     id="path4565-4-8-7"
     style="display:inline;fill:none;stroke:#ff0000;stroke-width:0.35433099;stroke-miterlimit:4;stroke-dasharray:none;stroke-opacity:1"
     r="1.7636194" />
  <circle
     cy="350.38126"
     cx="770.01471"
     id="path4565-4-8-8"
     style="display:inline;fill:none;stroke:#ff0000;stroke-width:0.35433099;stroke-miterlimit:4;stroke-dasharray:none;stroke-opacity:1"
     r="1.7636194" />
  <rect
     style="opacity:0.01000001;fill:none;stroke:#ff0000;stroke-width:0.35433099;stroke-miterlimit:4;stroke-dasharray:none;stroke-opacity:1"
     id="rect836"
     width="1182.203"
     height="792.1239"
     x="2.3931236"
     y="0.46816227" />
</svg>
