<?xml version="1.0" encoding="UTF-8" standalone="no"?>
<svg
   xmlns:dc="http://purl.org/dc/elements/1.1/"
   xmlns:cc="http://creativecommons.org/ns#"
   xmlns:rdf="http://www.w3.org/1999/02/22-rdf-syntax-ns#"
   xmlns:svg="http://www.w3.org/2000/svg"
   xmlns="http://www.w3.org/2000/svg"
   xmlns:sodipodi="http://sodipodi.sourceforge.net/DTD/sodipodi-0.dtd"
   xmlns:inkscape="http://www.inkscape.org/namespaces/inkscape"
   width="658.07715"
   height="293.91336"
   version="1.1"
   id="svg3739"
   sodipodi:docname="Couche 4 Copy 1 - Sketch 1.svg"
   inkscape:version="0.92.3 (2405546, 2018-03-11)">
  <metadata
     id="metadata3743">
    <rdf:RDF>
      <cc:Work
         rdf:about="">
        <dc:format>image/svg+xml</dc:format>
        <dc:type
           rdf:resource="http://purl.org/dc/dcmitype/StillImage" />
        <dc:title></dc:title>
      </cc:Work>
    </rdf:RDF>
  </metadata>
  <sodipodi:namedview
     pagecolor="#ffffff"
     bordercolor="#666666"
     borderopacity="1"
     objecttolerance="10"
     gridtolerance="10"
     guidetolerance="10"
     inkscape:pageopacity="0"
     inkscape:pageshadow="2"
     inkscape:window-width="1366"
     inkscape:window-height="705"
     id="namedview3741"
     showgrid="false"
     inkscape:zoom="0.59465222"
     inkscape:cx="211.91572"
     inkscape:cy="-5.5405462"
     inkscape:window-x="-8"
     inkscape:window-y="-8"
     inkscape:window-maximized="1"
     inkscape:current-layer="g3737" />
  <desc
     id="desc3617">C:\Users\Chris\Downloads\DocRobot\DécoupeLaser\Couche 4 Copy 1 - Sketch 1.dxf - scale = 1.000000, origin = (0.000000, 0.000000), method = manual</desc>
  <defs
     id="defs3631">
    <marker
       id="DistanceX"
       orient="auto"
       refX="0"
       refY="0"
       style="overflow:visible">
      <path
         d="M 3,-3 -3,3 M 0,-5 V 5"
         style="stroke:#000000;stroke-width:0.5"
         id="path3619"
         inkscape:connector-curvature="0" />
    </marker>
    <pattern
       height="8"
       id="Hatch"
       patternUnits="userSpaceOnUse"
       width="8"
       x="0"
       y="0">
      <path
         d="M8 4 l-4,4"
         linecap="square"
         stroke="#000000"
         stroke-width="0.25"
         id="path3622" />
      <path
         d="M6 2 l-4,4"
         linecap="square"
         stroke="#000000"
         stroke-width="0.25"
         id="path3624" />
      <path
         d="M4 0 l-4,4"
         linecap="square"
         stroke="#000000"
         stroke-width="0.25"
         id="path3626" />
    </pattern>
    <symbol
       id="*MODEL_SPACE" />
    <symbol
       id="*PAPER_SPACE" />
  </defs>
  <g
     inkscape:groupmode="layer"
     inkscape:label="0"
     id="g3633"
     transform="translate(-56.060486,-786.4875)" />
  <g
     inkscape:groupmode="layer"
     inkscape:label="SECTION_CUTTING_LINE"
     id="g3635"
     transform="translate(-56.060486,-786.4875)" />
  <g
     inkscape:groupmode="layer"
     inkscape:label="DETAIL_VIEW_BORDER"
     id="g3637"
     transform="translate(-56.060486,-786.4875)" />
  <g
     inkscape:groupmode="layer"
     inkscape:label="DETAIL_VIEW_PARENT_BORDER"
     id="g3639"
     transform="translate(-56.060486,-786.4875)" />
  <g
     inkscape:groupmode="layer"
     inkscape:label="TEXT"
     id="g3641"
     transform="translate(-56.060486,-786.4875)" />
  <g
     inkscape:groupmode="layer"
     inkscape:label="SKETCHED_GEOMETRY"
     id="g3643"
     transform="translate(-56.060486,-786.4875)" />
  <g
     inkscape:groupmode="layer"
     inkscape:label="VIRTUAL_SHARPS"
     id="g3645"
     transform="translate(-56.060486,-786.4875)" />
  <g
     inkscape:groupmode="layer"
     inkscape:label="CENTERLINES"
     id="g3647"
     transform="translate(-56.060486,-786.4875)" />
  <g
     inkscape:groupmode="layer"
     inkscape:label="CENTERMARKS"
     id="g3649"
     transform="translate(-56.060486,-786.4875)" />
  <g
     inkscape:groupmode="layer"
     inkscape:label="TABLES"
     id="g3651"
     transform="translate(-56.060486,-786.4875)" />
  <g
     inkscape:groupmode="layer"
     inkscape:label="IMAGES"
     id="g3653"
     transform="translate(-56.060486,-786.4875)" />
  <g
     inkscape:groupmode="layer"
     inkscape:label="ANNOTATION_LINES"
     id="g3655"
     transform="translate(-56.060486,-786.4875)" />
  <g
     inkscape:groupmode="layer"
     inkscape:label="ANNOTATION_TEXT"
     id="g3657"
     transform="translate(-56.060486,-786.4875)" />
  <g
     inkscape:groupmode="layer"
     inkscape:label="SIDE_THREAD_SYMBOLS"
     id="g3659"
     transform="translate(-56.060486,-786.4875)" />
  <g
     inkscape:groupmode="layer"
     inkscape:label="SIDE_THREAD_SYMBOLS_HIDDEN"
     id="g3661"
     transform="translate(-56.060486,-786.4875)" />
  <g
     inkscape:groupmode="layer"
     inkscape:label="SURFACE_THREAD_SYMBOLS"
     id="g3663"
     transform="translate(-56.060486,-786.4875)" />
  <g
     inkscape:groupmode="layer"
     inkscape:label="SURFACE_THREAD_SYMBOLS_ON_"
     id="g3665"
     transform="translate(-56.060486,-786.4875)" />
  <g
     inkscape:groupmode="layer"
     inkscape:label="SURFACE_THREAD_SYMBOLS_HID"
     id="g3667"
     transform="translate(-56.060486,-786.4875)" />
  <g
     inkscape:groupmode="layer"
     inkscape:label="BLIND_THREAD_SYMBOLS"
     id="g3669"
     transform="translate(-56.060486,-786.4875)" />
  <g
     inkscape:groupmode="layer"
     inkscape:label="BLIND_THREAD_SYMBOLS_HIDDE"
     id="g3671"
     transform="translate(-56.060486,-786.4875)" />
  <g
     inkscape:groupmode="layer"
     inkscape:label="EXPLODE_LINES"
     id="g3673"
     transform="translate(-56.060486,-786.4875)" />
  <g
     inkscape:groupmode="layer"
     inkscape:label="BREAK_LINES"
     id="g3675"
     transform="translate(-56.060486,-786.4875)" />
  <g
     inkscape:groupmode="layer"
     inkscape:label="SHEETMETAL_BEND_LINES_UP"
     id="g3677"
     transform="translate(-56.060486,-786.4875)" />
  <g
     inkscape:groupmode="layer"
     inkscape:label="SHEETMETAL_BEND_LINES_DOWN"
     id="g3679"
     transform="translate(-56.060486,-786.4875)" />
  <g
     inkscape:groupmode="layer"
     inkscape:label="SHEETMETAL_BEND_TANGENT_LI"
     id="g3681"
     transform="translate(-56.060486,-786.4875)" />
  <g
     inkscape:groupmode="layer"
     inkscape:label="SHEETMETAL_CUT_LINES"
     id="g3683"
     transform="translate(-56.060486,-786.4875)" />
  <g
     inkscape:groupmode="layer"
     inkscape:label="HIDDEN"
     id="g3685"
     transform="translate(-56.060486,-786.4875)" />
  <g
     inkscape:groupmode="layer"
     inkscape:label="VISIBLE"
     id="g3687"
     transform="translate(-56.060486,-786.4875)" />
  <g
     inkscape:groupmode="layer"
     inkscape:label="MODELSKETCH_VISIBLE"
     id="g3723"
     transform="translate(-56.060486,-786.4875)">
    <path
       d="m 56.55721,786.9875 a 330.70866,330.70866 0 0 0 657.08367,0"
       style="fill:none;stroke:#ff0000;stroke-width:0.37795276;stroke-miterlimit:4;stroke-dasharray:none;stroke-opacity:1"
       id="path3689"
       inkscape:connector-curvature="0" />
    <path
       d="M 543.79784,878.34934 560.04981,850.2001"
       style="fill:none;stroke:#ff0000;stroke-width:0.37795276;stroke-miterlimit:4;stroke-dasharray:none;stroke-opacity:1"
       id="path3691"
       inkscape:connector-curvature="0" />
    <path
       d="m 581.37519,824.98 -5.07341,-2.92913"
       style="fill:none;stroke:#ff0000;stroke-width:0.37795276;stroke-miterlimit:4;stroke-dasharray:none;stroke-opacity:1"
       id="path3693"
       inkscape:connector-curvature="0" />
    <path
       d="m 586.4486,827.90914 -16.25197,28.14923"
       style="fill:none;stroke:#ff0000;stroke-width:0.37795276;stroke-miterlimit:4;stroke-dasharray:none;stroke-opacity:1"
       id="path3695"
       inkscape:connector-curvature="0" />
    <path
       d="M 576.30178,822.05087 560.04981,850.2001"
       style="fill:none;stroke:#ff0000;stroke-width:0.37795276;stroke-miterlimit:4;stroke-dasharray:none;stroke-opacity:1"
       id="path3697"
       inkscape:connector-curvature="0" />
    <path
       d="m 470.13841,957.06624 a 85.03937,85.03937 0 1 0 -170.07874,0 85.03937,85.03937 0 1 0 170.07874,0 z"
       style="fill:none;stroke:#ff0000;stroke-width:0.37795276;stroke-miterlimit:4;stroke-dasharray:none;stroke-opacity:1"
       id="path3699"
       inkscape:connector-curvature="0" />
    <path
       d="m 581.37519,824.98 5.07341,2.92914"
       style="fill:none;stroke:#ff0000;stroke-width:0.37795276;stroke-miterlimit:4;stroke-dasharray:none;stroke-opacity:1"
       id="path3701"
       inkscape:connector-curvature="0" />
    <path
       d="m 548.87125,881.27847 -5.07341,-2.92913"
       style="fill:none;stroke:#ff0000;stroke-width:0.37795276;stroke-miterlimit:4;stroke-dasharray:none;stroke-opacity:1"
       id="path3703"
       inkscape:connector-curvature="0" />
    <path
       d="m 548.87125,881.27847 5.07341,2.92914"
       style="fill:none;stroke:#ff0000;stroke-width:0.37795276;stroke-miterlimit:4;stroke-dasharray:none;stroke-opacity:1"
       id="path3705"
       inkscape:connector-curvature="0" />
    <path
       d="m 553.94466,884.20761 16.25197,-28.14924"
       style="fill:none;stroke:#ff0000;stroke-width:0.37795276;stroke-miterlimit:4;stroke-dasharray:none;stroke-opacity:1"
       id="path3707"
       inkscape:connector-curvature="0" />
    <path
       d="M 385.09904,786.9875 H 56.55721"
       style="fill:none;stroke:#ff0000;stroke-width:0.37795276;stroke-miterlimit:4;stroke-dasharray:none;stroke-opacity:1"
       id="path3709"
       inkscape:connector-curvature="0" />
    <path
       d="M 56.55721,786.9875 H 713.64088"
       style="fill:none;stroke:#ff0000;stroke-width:0.37795276;stroke-miterlimit:4;stroke-dasharray:none;stroke-opacity:1"
       id="path3711"
       inkscape:connector-curvature="0" />
    <path
       d="m 437.84083,1052.396 14.27935,17.6168"
       style="fill:none;stroke:#ff0000;stroke-width:0.37795276;stroke-miterlimit:4;stroke-dasharray:none;stroke-opacity:1"
       id="path3713"
       inkscape:connector-curvature="0" />
    <path
       d="m 452.12018,1070.0128 64.59517,-52.3576"
       style="fill:none;stroke:#ff0000;stroke-width:0.37795276;stroke-miterlimit:4;stroke-dasharray:none;stroke-opacity:1"
       id="path3715"
       inkscape:connector-curvature="0" />
    <path
       d="M 516.71535,1017.6552 488.15664,982.42146"
       style="fill:none;stroke:#ff0000;stroke-width:0.37795276;stroke-miterlimit:4;stroke-dasharray:none;stroke-opacity:1"
       id="path3717"
       inkscape:connector-curvature="0" />
    <path
       d="m 452.12018,1070.0128 -28.5587,-35.2337"
       style="fill:none;stroke:#ff0000;stroke-width:0.37795276;stroke-miterlimit:4;stroke-dasharray:none;stroke-opacity:1"
       id="path3719"
       inkscape:connector-curvature="0" />
    <path
       d="m 423.56148,1034.7791 64.59516,-52.35764"
       style="fill:none;stroke:#ff0000;stroke-width:0.37795276;stroke-miterlimit:4;stroke-dasharray:none;stroke-opacity:1"
       id="path3721"
       inkscape:connector-curvature="0" />
  </g>
  <g
     inkscape:groupmode="layer"
     inkscape:label="MODELSKETCH_CONSTRUCTION"
     id="g3725"
     transform="translate(-56.060486,-786.4875)" />
  <g
     inkscape:groupmode="layer"
     inkscape:label="HIDDEN_BASE_VIEW"
     id="g3727"
     transform="translate(-56.060486,-786.4875)" />
  <g
     inkscape:groupmode="layer"
     inkscape:label="TANGENT_LINES"
     id="g3729"
     transform="translate(-56.060486,-786.4875)" />
  <g
     inkscape:groupmode="layer"
     inkscape:label="TANGENT_HIDDEN"
     id="g3731"
     transform="translate(-56.060486,-786.4875)" />
  <g
     inkscape:groupmode="layer"
     inkscape:label="INVISIBLE_LINES"
     id="g3733"
     transform="translate(-56.060486,-786.4875)" />
  <g
     inkscape:groupmode="layer"
     inkscape:label="VIEW_HATCHES"
     id="g3735"
     transform="translate(-56.060486,-786.4875)" />
  <g
     inkscape:groupmode="layer"
     inkscape:label="SECTION_JOG_LINES"
     id="g3737"
     transform="translate(-56.060486,-786.4875)" />
</svg>
